{'status': 'UN', 'statusMessage': None, 'productNumber': None, 'seriesOid': None, 'seriesName': None, 'modelOid': None, 'modelName': None, 'serialNumber': 'CN484206AG', 'displaySerialNumber': 'CN484206AG', 'cc': 'US', 'lc': 'EN', 'isoCountryCde': 'US', 'productTitle': None, 'productImageUrl': '/static/hp-support-site-console/resources/images/tms/tms-fallback.png', 'warrantyResultRedirectUrl': '/us-en/warrantyresult?serialNo=CN484206AG&sku=null&multiWarranty=true', 'obligationEndDate': None, 'obligationStatus': 'Unknown Warranty', 'isProductAvailableInTMS': False, 'warrantyResultList': None}
{'status': 'UN', 'statusMessage': None, 'productNumber': None, 'seriesOid': None, 'seriesName': None, 'modelOid': None, 'modelName': None, 'serialNumber': 'CN484206AI', 'displaySerialNumber': 'CN484206AI', 'cc': 'US', 'lc': 'EN', 'isoCountryCde': 'US', 'productTitle': None, 'productImageUrl': '/static/hp-support-site-console/resources/images/tms/tms-fallback.png', 'warrantyResultRedirectUrl': '/us-en/warrantyresult?serialNo=CN484206AI&sku=null&multiWarranty=true', 'obligationEndDate': None, 'obligationStatus': 'Unknown Warranty', 'isProductAvailableInTMS': False, 'warrantyResultList': None}
{'status': 'UN', 'statusMessage': None, 'productNumber': None, 'seriesOid': None, 'seriesName': None, 'modelOid': None, 'modelName': None, 'serialNumber': 'CN484206AL', 'displaySerialNumber': 'CN484206AL', 'cc': 'US', 'lc': 'EN', 'isoCountryCde': 'US', 'productTitle': None, 'productImageUrl': '/static/hp-support-site-console/resources/images/tms/tms-fallback.png', 'warrantyResultRedirectUrl': '/us-en/warrantyresult?serialNo=CN484206AL&sku=null&multiWarranty=true', 'obligationEndDate': None, 'obligationStatus': 'Unknown Warranty', 'isProductAvailableInTMS': False, 'warrantyResultList': None}
{'status': 'UN', 'statusMessage': None, 'productNumber': None, 'seriesOid': None, 'seriesName': None, 'modelOid': None, 'modelName': None, 'serialNumber': 'CN484206AM', 'displaySerialNumber': 'CN484206AM', 'cc': 'US', 'lc': 'EN', 'isoCountryCde': 'US', 'productTitle': None, 'productImageUrl': '/static/hp-support-site-console/resources/images/tms/tms-fallback.png', 'warrantyResultRedirectUrl': '/us-en/warrantyresult?serialNo=CN484206AM&sku=null&multiWarranty=true', 'obligationEndDate': None, 'obligationStatus': 'Unknown Warranty', 'isProductAvailableInTMS': False, 'warrantyResultList': None}
{'status': 'UN', 'statusMessage': None, 'productNumber': None, 'seriesOid': None, 'seriesName': None, 'modelOid': None, 'modelName': None, 'serialNumber': 'CN484206AN', 'displaySerialNumber': 'CN484206AN', 'cc': 'US', 'lc': 'EN', 'isoCountryCde': 'US', 'productTitle': None, 'productImageUrl': '/static/hp-support-site-console/resources/images/tms/tms-fallback.png', 'warrantyResultRedirectUrl': '/us-en/warrantyresult?serialNo=CN484206AN&sku=null&multiWarranty=true', 'obligationEndDate': None, 'obligationStatus': 'Unknown Warranty', 'isProductAvailableInTMS': False, 'warrantyResultList': None}
{'status': 'UN', 'statusMessage': None, 'productNumber': None, 'seriesOid': None, 'seriesName': None, 'modelOid': None, 'modelName': None, 'serialNumber': 'CN484206AQ', 'displaySerialNumber': 'CN484206AQ', 'cc': 'US', 'lc': 'EN', 'isoCountryCde': 'US', 'productTitle': None, 'productImageUrl': '/static/hp-support-site-console/resources/images/tms/tms-fallback.png', 'warrantyResultRedirectUrl': '/us-en/warrantyresult?serialNo=CN484206AQ&sku=null&multiWarranty=true', 'obligationEndDate': None, 'obligationStatus': 'Unknown Warranty', 'isProductAvailableInTMS': False, 'warrantyResultList': None}
{'status': 'UN', 'statusMessage': None, 'productNumber': None, 'seriesOid': None, 'seriesName': None, 'modelOid': None, 'modelName': None, 'serialNumber': 'CN484206AR', 'displaySerialNumber': 'CN484206AR', 'cc': 'US', 'lc': 'EN', 'isoCountryCde': 'US', 'productTitle': None, 'productImageUrl': '/static/hp-support-site-console/resources/images/tms/tms-fallback.png', 'warrantyResultRedirectUrl': '/us-en/warrantyresult?serialNo=CN484206AR&sku=null&multiWarranty=true', 'obligationEndDate': None, 'obligationStatus': 'Unknown Warranty', 'isProductAvailableInTMS': False, 'warrantyResultList': None}
{'status': 'UN', 'statusMessage': None, 'productNumber': None, 'seriesOid': None, 'seriesName': None, 'modelOid': None, 'modelName': None, 'serialNumber': 'CN484206AS', 'displaySerialNumber': 'CN484206AS', 'cc': 'US', 'lc': 'EN', 'isoCountryCde': 'US', 'productTitle': None, 'productImageUrl': '/static/hp-support-site-console/resources/images/tms/tms-fallback.png', 'warrantyResultRedirectUrl': '/us-en/warrantyresult?serialNo=CN484206AS&sku=null&multiWarranty=true', 'obligationEndDate': None, 'obligationStatus': 'Unknown Warranty', 'isProductAvailableInTMS': False, 'warrantyResultList': None}





{'status': 'UN', 'statusMessage': None, 'productNumber': None, 'seriesOid': None, 'seriesName': None, 'modelOid': None, 'modelName': None, 'serialNumber': 'CN484206EO', 'displaySerialNumber': 'CN484206EO', 'cc': 'US', 'lc': 'EN', 'isoCountryCde': 'US', 'productTitle': None, 'productImageUrl': '/static/hp-support-site-console/resources/images/tms/tms-fallback.png', 'warrantyResultRedirectUrl': '/us-en/warrantyresult?serialNo=CN484206EO&sku=null&multiWarranty=true', 'obligationEndDate': None, 'obligationStatus': 'Unknown Warranty', 'isProductAvailableInTMS': False, 'warrantyResultList': None}
{'status': 'UN', 'statusMessage': None, 'productNumber': None, 'seriesOid': None, 'seriesName': None, 'modelOid': None, 'modelName': None, 'serialNumber': 'CN484206ER', 'displaySerialNumber': 'CN484206ER', 'cc': 'US', 'lc': 'EN', 'isoCountryCde': 'US', 'productTitle': None, 'productImageUrl': '/static/hp-support-site-console/resources/images/tms/tms-fallback.png', 'warrantyResultRedirectUrl': '/us-en/warrantyresult?serialNo=CN484206ER&sku=null&multiWarranty=true', 'obligationEndDate': None, 'obligationStatus': 'Unknown Warranty', 'isProductAvailableInTMS': False, 'warrantyResultList': None}


{'status': 'UN', 'statusMessage': None, 'productNumber': None, 'seriesOid': None, 'seriesName': None, 'modelOid': None, 'modelName': None, 'serialNumber': 'CN484206HE', 'displaySerialNumber': 'CN484206HE', 'cc': 'US', 'lc': 'EN', 'isoCountryCde': 'US', 'productTitle': None, 'productImageUrl': '/static/hp-support-site-console/resources/images/tms/tms-fallback.png', 'warrantyResultRedirectUrl': '/us-en/warrantyresult?serialNo=CN484206HE&sku=null&multiWarranty=true', 'obligationEndDate': None, 'obligationStatus': 'Unknown Warranty', 'isProductAvailableInTMS': False, 'warrantyResultList': None}
{'status': 'UN', 'statusMessage': None, 'productNumber': None, 'seriesOid': None, 'seriesName': None, 'modelOid': None, 'modelName': None, 'serialNumber': 'CN484206HO', 'displaySerialNumber': 'CN484206HO', 'cc': 'US', 'lc': 'EN', 'isoCountryCde': 'US', 'productTitle': None, 'productImageUrl': '/static/hp-support-site-console/resources/images/tms/tms-fallback.png', 'warrantyResultRedirectUrl': '/us-en/warrantyresult?serialNo=CN484206HO&sku=null&multiWarranty=true', 'obligationEndDate': None, 'obligationStatus': 'Unknown Warranty', 'isProductAvailableInTMS': False, 'warrantyResultList': None}
{'status': 'UN', 'statusMessage': None, 'productNumber': None, 'seriesOid': None, 'seriesName': None, 'modelOid': None, 'modelName': None, 'serialNumber': 'CN484206IB', 'displaySerialNumber': 'CN484206IB', 'cc': 'US', 'lc': 'EN', 'isoCountryCde': 'US', 'productTitle': None, 'productImageUrl': '/static/hp-support-site-console/resources/images/tms/tms-fallback.png', 'warrantyResultRedirectUrl': '/us-en/warrantyresult?serialNo=CN484206IB&sku=null&multiWarranty=true', 'obligationEndDate': None, 'obligationStatus': 'Unknown Warranty', 'isProductAvailableInTMS': False, 'warrantyResultList': None}
{'status': 'UN', 'statusMessage': None, 'productNumber': None, 'seriesOid': None, 'seriesName': None, 'modelOid': None, 'modelName': None, 'serialNumber': 'CN484206ID', 'displaySerialNumber': 'CN484206ID', 'cc': 'US', 'lc': 'EN', 'isoCountryCde': 'US', 'productTitle': None, 'productImageUrl': '/static/hp-support-site-console/resources/images/tms/tms-fallback.png', 'warrantyResultRedirectUrl': '/us-en/warrantyresult?serialNo=CN484206ID&sku=null&multiWarranty=true', 'obligationEndDate': None, 'obligationStatus': 'Unknown Warranty', 'isProductAvailableInTMS': False, 'warrantyResultList': None}
{'status': 'UN', 'statusMessage': None, 'productNumber': None, 'seriesOid': None, 'seriesName': None, 'modelOid': None, 'modelName': None, 'serialNumber': 'CN484206IG', 'displaySerialNumber': 'CN484206IG', 'cc': 'US', 'lc': 'EN', 'isoCountryCde': 'US', 'productTitle': None, 'productImageUrl': '/static/hp-support-site-console/resources/images/tms/tms-fallback.png', 'warrantyResultRedirectUrl': '/us-en/warrantyresult?serialNo=CN484206IG&sku=null&multiWarranty=true', 'obligationEndDate': None, 'obligationStatus': 'Unknown Warranty', 'isProductAvailableInTMS': False, 'warrantyResultList': None}
{'status': 'UN', 'statusMessage': None, 'productNumber': None, 'seriesOid': None, 'seriesName': None, 'modelOid': None, 'modelName': None, 'serialNumber': 'CN484206IK', 'displaySerialNumber': 'CN484206IK', 'cc': 'US', 'lc': 'EN', 'isoCountryCde': 'US', 'productTitle': None, 'productImageUrl': '/static/hp-support-site-console/resources/images/tms/tms-fallback.png', 'warrantyResultRedirectUrl': '/us-en/warrantyresult?serialNo=CN484206IK&sku=null&multiWarranty=true', 'obligationEndDate': None, 'obligationStatus': 'Unknown Warranty', 'isProductAvailableInTMS': False, 'warrantyResultList': None}

{'status': 'UN', 'statusMessage': None, 'productNumber': None, 'seriesOid': None, 'seriesName': None, 'modelOid': None, 'modelName': None, 'serialNumber': 'CN484206KA', 'displaySerialNumber': 'CN484206KA', 'cc': 'US', 'lc': 'EN', 'isoCountryCde': 'US', 'productTitle': None, 'productImageUrl': '/static/hp-support-site-console/resources/images/tms/tms-fallback.png', 'warrantyResultRedirectUrl': '/us-en/warrantyresult?serialNo=CN484206KA&sku=null&multiWarranty=true', 'obligationEndDate': None, 'obligationStatus': 'Unknown Warranty', 'isProductAvailableInTMS': False, 'warrantyResultList': None}
{'status': 'UN', 'statusMessage': None, 'productNumber': None, 'seriesOid': None, 'seriesName': None, 'modelOid': None, 'modelName': None, 'serialNumber': 'CN484206KI', 'displaySerialNumber': 'CN484206KI', 'cc': 'US', 'lc': 'EN', 'isoCountryCde': 'US', 'productTitle': None, 'productImageUrl': '/static/hp-support-site-console/resources/images/tms/tms-fallback.png', 'warrantyResultRedirectUrl': '/us-en/warrantyresult?serialNo=CN484206KI&sku=null&multiWarranty=true', 'obligationEndDate': None, 'obligationStatus': 'Unknown Warranty', 'isProductAvailableInTMS': False, 'warrantyResultList': None}



{'status': 'UN', 'statusMessage': None, 'productNumber': None, 'seriesOid': None, 'seriesName': None, 'modelOid': None, 'modelName': None, 'serialNumber': 'CN484206NE', 'displaySerialNumber': 'CN484206NE', 'cc': 'US', 'lc': 'EN', 'isoCountryCde': 'US', 'productTitle': None, 'productImageUrl': '/static/hp-support-site-console/resources/images/tms/tms-fallback.png', 'warrantyResultRedirectUrl': '/us-en/warrantyresult?serialNo=CN484206NE&sku=null&multiWarranty=true', 'obligationEndDate': None, 'obligationStatus': 'Unknown Warranty', 'isProductAvailableInTMS': False, 'warrantyResultList': None}


{'status': 'UN', 'statusMessage': None, 'productNumber': None, 'seriesOid': None, 'seriesName': None, 'modelOid': None, 'modelName': None, 'serialNumber': 'CN484206PO', 'displaySerialNumber': 'CN484206PO', 'cc': 'US', 'lc': 'EN', 'isoCountryCde': 'US', 'productTitle': None, 'productImageUrl': '/static/hp-support-site-console/resources/images/tms/tms-fallback.png', 'warrantyResultRedirectUrl': '/us-en/warrantyresult?serialNo=CN484206PO&sku=null&multiWarranty=true', 'obligationEndDate': None, 'obligationStatus': 'Unknown Warranty', 'isProductAvailableInTMS': False, 'warrantyResultList': None}
{'status': 'UN', 'statusMessage': None, 'productNumber': None, 'seriesOid': None, 'seriesName': None, 'modelOid': None, 'modelName': None, 'serialNumber': 'CN484206PU', 'displaySerialNumber': 'CN484206PU', 'cc': 'US', 'lc': 'EN', 'isoCountryCde': 'US', 'productTitle': None, 'productImageUrl': '/static/hp-support-site-console/resources/images/tms/tms-fallback.png', 'warrantyResultRedirectUrl': '/us-en/warrantyresult?serialNo=CN484206PU&sku=null&multiWarranty=true', 'obligationEndDate': None, 'obligationStatus': 'Unknown Warranty', 'isProductAvailableInTMS': False, 'warrantyResultList': None}
{'status': 'UN', 'statusMessage': None, 'productNumber': None, 'seriesOid': None, 'seriesName': None, 'modelOid': None, 'modelName': None, 'serialNumber': 'CN484206QA', 'displaySerialNumber': 'CN484206QA', 'cc': 'US', 'lc': 'EN', 'isoCountryCde': 'US', 'productTitle': None, 'productImageUrl': '/static/hp-support-site-console/resources/images/tms/tms-fallback.png', 'warrantyResultRedirectUrl': '/us-en/warrantyresult?serialNo=CN484206QA&sku=null&multiWarranty=true', 'obligationEndDate': None, 'obligationStatus': 'Unknown Warranty', 'isProductAvailableInTMS': False, 'warrantyResultList': None}
{'status': 'UN', 'statusMessage': None, 'productNumber': None, 'seriesOid': None, 'seriesName': None, 'modelOid': None, 'modelName': None, 'serialNumber': 'CN484206QI', 'displaySerialNumber': 'CN484206QI', 'cc': 'US', 'lc': 'EN', 'isoCountryCde': 'US', 'productTitle': None, 'productImageUrl': '/static/hp-support-site-console/resources/images/tms/tms-fallback.png', 'warrantyResultRedirectUrl': '/us-en/warrantyresult?serialNo=CN484206QI&sku=null&multiWarranty=true', 'obligationEndDate': None, 'obligationStatus': 'Unknown Warranty', 'isProductAvailableInTMS': False, 'warrantyResultList': None}
{'status': 'UN', 'statusMessage': None, 'productNumber': None, 'seriesOid': None, 'seriesName': None, 'modelOid': None, 'modelName': None, 'serialNumber': 'CN484206RE', 'displaySerialNumber': 'CN484206RE', 'cc': 'US', 'lc': 'EN', 'isoCountryCde': 'US', 'productTitle': None, 'productImageUrl': '/static/hp-support-site-console/resources/images/tms/tms-fallback.png', 'warrantyResultRedirectUrl': '/us-en/warrantyresult?serialNo=CN484206RE&sku=null&multiWarranty=true', 'obligationEndDate': None, 'obligationStatus': 'Unknown Warranty', 'isProductAvailableInTMS': False, 'warrantyResultList': None}


{'status': 'UN', 'statusMessage': None, 'productNumber': None, 'seriesOid': None, 'seriesName': None, 'modelOid': None, 'modelName': None, 'serialNumber': 'CN484206TA', 'displaySerialNumber': 'CN484206TA', 'cc': 'US', 'lc': 'EN', 'isoCountryCde': 'US', 'productTitle': None, 'productImageUrl': '/static/hp-support-site-console/resources/images/tms/tms-fallback.png', 'warrantyResultRedirectUrl': '/us-en/warrantyresult?serialNo=CN484206TA&sku=null&multiWarranty=true', 'obligationEndDate': None, 'obligationStatus': 'Unknown Warranty', 'isProductAvailableInTMS': False, 'warrantyResultList': None}
{'status': 'UN', 'statusMessage': None, 'productNumber': None, 'seriesOid': None, 'seriesName': None, 'modelOid': None, 'modelName': None, 'serialNumber': 'CN484206UC', 'displaySerialNumber': 'CN484206UC', 'cc': 'US', 'lc': 'EN', 'isoCountryCde': 'US', 'productTitle': None, 'productImageUrl': '/static/hp-support-site-console/resources/images/tms/tms-fallback.png', 'warrantyResultRedirectUrl': '/us-en/warrantyresult?serialNo=CN484206UC&sku=null&multiWarranty=true', 'obligationEndDate': None, 'obligationStatus': 'Unknown Warranty', 'isProductAvailableInTMS': False, 'warrantyResultList': None}
{'status': 'UN', 'statusMessage': None, 'productNumber': None, 'seriesOid': None, 'seriesName': None, 'modelOid': None, 'modelName': None, 'serialNumber': 'CN484206UM', 'displaySerialNumber': 'CN484206UM', 'cc': 'US', 'lc': 'EN', 'isoCountryCde': 'US', 'productTitle': None, 'productImageUrl': '/static/hp-support-site-console/resources/images/tms/tms-fallback.png', 'warrantyResultRedirectUrl': '/us-en/warrantyresult?serialNo=CN484206UM&sku=null&multiWarranty=true', 'obligationEndDate': None, 'obligationStatus': 'Unknown Warranty', 'isProductAvailableInTMS': False, 'warrantyResultList': None}
{'status': 'UN', 'statusMessage': None, 'productNumber': None, 'seriesOid': None, 'seriesName': None, 'modelOid': None, 'modelName': None, 'serialNumber': 'CN484206UO', 'displaySerialNumber': 'CN484206UO', 'cc': 'US', 'lc': 'EN', 'isoCountryCde': 'US', 'productTitle': None, 'productImageUrl': '/static/hp-support-site-console/resources/images/tms/tms-fallback.png', 'warrantyResultRedirectUrl': '/us-en/warrantyresult?serialNo=CN484206UO&sku=null&multiWarranty=true', 'obligationEndDate': None, 'obligationStatus': 'Unknown Warranty', 'isProductAvailableInTMS': False, 'warrantyResultList': None}


{'status': 'UN', 'statusMessage': None, 'productNumber': None, 'seriesOid': None, 'seriesName': None, 'modelOid': None, 'modelName': None, 'serialNumber': 'CN484206XA', 'displaySerialNumber': 'CN484206XA', 'cc': 'US', 'lc': 'EN', 'isoCountryCde': 'US', 'productTitle': None, 'productImageUrl': '/static/hp-support-site-console/resources/images/tms/tms-fallback.png', 'warrantyResultRedirectUrl': '/us-en/warrantyresult?serialNo=CN484206XA&sku=null&multiWarranty=true', 'obligationEndDate': None, 'obligationStatus': 'Unknown Warranty', 'isProductAvailableInTMS': False, 'warrantyResultList': None}
{'status': 'UN', 'statusMessage': None, 'productNumber': None, 'seriesOid': None, 'seriesName': None, 'modelOid': None, 'modelName': None, 'serialNumber': 'CN484206XI', 'displaySerialNumber': 'CN484206XI', 'cc': 'US', 'lc': 'EN', 'isoCountryCde': 'US', 'productTitle': None, 'productImageUrl': '/static/hp-support-site-console/resources/images/tms/tms-fallback.png', 'warrantyResultRedirectUrl': '/us-en/warrantyresult?serialNo=CN484206XI&sku=null&multiWarranty=true', 'obligationEndDate': None, 'obligationStatus': 'Unknown Warranty', 'isProductAvailableInTMS': False, 'warrantyResultList': None}


{'status': 'UN', 'statusMessage': None, 'productNumber': None, 'seriesOid': None, 'seriesName': None, 'modelOid': None, 'modelName': None, 'serialNumber': 'CN484206ZO', 'displaySerialNumber': 'CN484206ZO', 'cc': 'US', 'lc': 'EN', 'isoCountryCde': 'US', 'productTitle': None, 'productImageUrl': '/static/hp-support-site-console/resources/images/tms/tms-fallback.png', 'warrantyResultRedirectUrl': '/us-en/warrantyresult?serialNo=CN484206ZO&sku=null&multiWarranty=true', 'obligationEndDate': None, 'obligationStatus': 'Unknown Warranty', 'isProductAvailableInTMS': False, 'warrantyResultList': None}












