CN484206CI;V4G46A8;HP EliteDisplay S340c 34-inch Curved Monitor;IW;14104844;14104845;;Manufacturer Warranty;2018-10-24;2021-11-17
CN484206CO;V4G46A8;HP EliteDisplay S340c 34-inch Curved Monitor;IW;14104844;14104845;;Manufacturer Warranty;2018-10-24;2021-11-17
CN484206CU;V4G46A8;HP EliteDisplay S340c 34-inch Curved Monitor;IW;14104844;14104845;;Manufacturer Warranty;2018-10-24;2021-11-17
CN484206DA;V4G46A8;HP EliteDisplay S340c 34-inch Curved Monitor;IW;14104844;14104845;;Manufacturer Warranty;2018-10-24;2021-11-17
CN484206DE;V4G46A8;HP EliteDisplay S340c 34-inch Curved Monitor;IW;14104844;14104845;;Manufacturer Warranty;2018-10-24;2021-11-17
CN484206DI;V4G46A8;HP EliteDisplay S340c 34-inch Curved Monitor;IW;14104844;14104845;;Manufacturer Warranty;2018-10-24;2021-11-17
CN484206DO;V4G46A8;HP EliteDisplay S340c 34-inch Curved Monitor;IW;14104844;14104845;;Manufacturer Warranty;2018-10-24;2021-11-17
CN484206DU;V4G46A8;HP EliteDisplay S340c 34-inch Curved Monitor;IW;14104844;14104845;;Manufacturer Warranty;2018-10-24;2021-11-17
CN484206EA;V4G46A8;HP EliteDisplay S340c 34-inch Curved Monitor;IW;14104844;14104845;;Manufacturer Warranty;2018-10-24;2021-11-17
CN484206EB;V4G46A8;HP EliteDisplay S340c 34-inch Curved Monitor;IW;14104844;14104845;;Manufacturer Warranty;2018-10-24;2021-11-17
CN484206EC;V4G46A8;HP EliteDisplay S340c 34-inch Curved Monitor;IW;14104844;14104845;;Manufacturer Warranty;2018-10-24;2021-11-17
CN484206ED;V4G46A8;HP EliteDisplay S340c 34-inch Curved Monitor;IW;14104844;14104845;;Manufacturer Warranty;2018-10-24;2021-11-17
CN484206EE;V4G46A8;HP EliteDisplay S340c 34-inch Curved Monitor;IW;14104844;14104845;;Manufacturer Warranty;2018-10-24;2021-11-17
CN484206EY;V4G46A8;HP EliteDisplay S340c 34-inch Curved Monitor;IW;14104844;14104845;;Manufacturer Warranty;2018-10-24;2021-11-17
CN484206EZ;V4G46A8;HP EliteDisplay S340c 34-inch Curved Monitor;IW;14104844;14104845;;Manufacturer Warranty;2018-10-24;2021-11-17
